Module 2 - Data import and manipulation
…
---

# Data for the following examples

We will use the `iris` and `penguins` datasets as you are familiar with them from the exercises

``` r
iris
```

```
#> # A tibble: 150 × 5
#>   Sepal.Length Sepal.Width Petal.Length Petal.Width Species
#>          <dbl>       <dbl>        <dbl>       <dbl> <fct>  
#> 1          5.1         3.5          1.4         0.2 setosa 
#> 2          4.9         3            1.4         0.2 setosa 
#> 3          4.7         3.2          1.3         0.2 setosa 
#> 4          4.6         3.1          1.5         0.2 setosa 
#> 5          5           3.6          1.4         0.2 setosa 
#> # ℹ 145 more rows
```

``` r
penguins
```

```
#> # A tibble: 344 × 8
#>   species island    bill_len bill_dep flipper_len body_mass sex     year
#>   <fct>   <fct>        <dbl>    <dbl>       <int>     <int> <fct>  <int>
#> 1 Adelie  Torgersen     39.1     18.7         181      3750 male    2007
#> 2 Adelie  Torgersen     39.5     17.4         186      3800 female  2007
#> 3 Adelie  Torgersen     40.3     18           195      3250 female  2007
#> 4 Adelie  Torgersen     NA       NA            NA        NA <NA>    2007
#> 5 Adelie  Torgersen     36.7     19.3         193      3450 female  2007
#> # ℹ 339 more rows
```

---

# Note about the code in the following examples

The code is **not assigning results to objects**, rather **printing the console for demonstration purposes**.

``` r
# Print to console
iris |> 
  filter(Sepal.Length > 7.5)
```

```
#> # A tibble: 6 × 5
#>   Sepal.Length Sepal.Width Petal.Length Petal.Width Species  
#>          <dbl>       <dbl>        <dbl>       <dbl> <fct>    
#> 1          7.6         3            6.6         2.1 virginica
#> 2          7.7         3.8          6.7         2.2 virginica
#> 3          7.7         2.6          6.9         2.3 virginica
#> 4          7.7         2.8          6.7         2   virginica
#> 5          7.9         3.8          6.4         2   virginica
#> # ℹ 1 more row
```
…
`group_by()` creates a **grouping attribute** within the data
- subsequent operations are conducted by groups and then combined
- "split-apply-combine" approach

``` r
iris|>
  group_by(Species)
```

--

```
#> # A tibble: 150 × 5
*#> # Groups:   Species [3]
#>   Sepal.Length Sepal.Width Petal.Length Petal.Width Species
#>          <dbl>       <dbl>        <dbl>       <dbl> <fct>  
#> 1          5.1         3.5          1.4         0.2 setosa 
#> 2          4.9         3            1.4         0.2 setosa 
#> 3          4.7         3.2          1.3         0.2 setosa 
#> 4          4.6         3.1          1.5         0.2 setosa 
#> 5          5           3.6          1.4         0.2 setosa 
#> # ℹ 145 more rows
```
…
---

# `group_by()` can use multiple columns

You can create groups using combinations of columns

``` r
penguins|>
  group_by(species, island) 
```

--

```
#> # A tibble: 344 × 8
*#> # Groups:   species, island [5]
#>   species island    bill_len bill_dep flipper_len body_mass sex     year
#>   <fct>   <fct>        <dbl>    <dbl>       <int>     <int> <fct>  <int>
#> 1 Adelie  Torgersen     39.1     18.7         181      3750 male    2007
#> 2 Adelie  Torgersen     39.5     17.4         186      3800 female  2007
#> 3 Adelie  Torgersen     40.3     18           195      3250 female  2007
#> 4 Adelie  Torgersen     NA       NA            NA        NA <NA>    2007
#> 5 Adelie  Torgersen     36.7     19.3         193      3450 female  2007
#> # ℹ 339 more rows
```
…
--

Let's say you want to calculate: the ratio of sepal length to sepal width, or log petal length.

``` r
iris |> 
  mutate(
    sepal_ratio = Sepal.Length / Sepal.Width,
    log_Petal.Length = log(Petal.Length)
  )
```

```
#> # A tibble: 150 × 7
#>   Sepal.Length Sepal.Width Petal.Length Petal.Width Species sepal_ratio log_Petal.Length
#>          <dbl>       <dbl>        <dbl>       <dbl> <fct>         <dbl>            <dbl>
#> 1          5.1         3.5          1.4         0.2 setosa         1.46            0.336
#> 2          4.9         3            1.4         0.2 setosa         1.63            0.336
#> 3          4.7         3.2          1.3         0.2 setosa         1.47            0.262
#> 4          4.6         3.1          1.5         0.2 setosa         1.48            0.405
#> 5          5           3.6          1.4         0.2 setosa         1.39            0.336
#> 6          5.4         3.9          1.7         0.4 setosa         1.38            0.531
#> 7          4.6         3.4          1.4         0.3 setosa         1.35            0.336
#> # ℹ 143 more rows
```
…
Or categorising values using `case_when` (also from **`dplyr`**)

``` r
penguins |> 
  mutate(
    flipper_len_cat = case_when(
      flipper_len < 190 ~ "Short",
      flipper_len >= 190 & flipper_len < 210 ~ "Medium",
      flipper_len >= 210 ~ "Long"
    )
  )
```

```
#> # A tibble: 344 × 9
#>   species island    bill_len bill_dep flipper_len body_mass sex     year flipper_len_cat
#>   <fct>   <fct>        <dbl>    <dbl>       <int>     <int> <fct>  <int> <chr>          
#> 1 Adelie  Torgersen     39.1     18.7         181      3750 male    2007 Short          
#> 2 Adelie  Torgersen     39.5     17.4         186      3800 female  2007 Short          
#> 3 Adelie  Torgersen     40.3     18           195      3250 female  2007 Medium         
#> 4 Adelie  Torgersen     NA       NA            NA        NA <NA>    2007 <NA>           
#> 5 Adelie  Torgersen     36.7     19.3         193      3450 female  2007 Medium         
#> 6 Adelie  Torgersen     39.3     20.6         190      3650 male    2007 Medium         
#> 7 Adelie  Torgersen     38.9     17.8         181      3625 female  2007 Short          
#> # ℹ 337 more rows
```
…
--

.pull-left[

Select columns using names with without using quotes

``` r
iris |>  
  select(Species, Sepal.Length)
```

```
#> # A tibble: 150 × 2
#>    Species Sepal.Length
#>    <fct>          <dbl>
#>  1 setosa           5.1
#>  2 setosa           4.9
#>  3 setosa           4.7
#>  4 setosa           4.6
#>  5 setosa           5  
#>  6 setosa           5.4
#>  7 setosa           4.6
#>  8 setosa           5  
#>  9 setosa           4.4
#> 10 setosa           4.9
#> 11 setosa           5.4
#> 12 setosa           4.8
#> # ℹ 138 more rows
```
]

--

.pull-right[

Remove columns using `-`

``` r
iris |>  
  select(-Sepal.Length, -Sepal.Width)
```

```
#> # A tibble: 150 × 3
#>    Petal.Length Petal.Width Species
#>           <dbl>       <dbl> <fct>  
#>  1          1.4         0.2 setosa 
#>  2          1.4         0.2 setosa 
#>  3          1.3         0.2 setosa 
#>  4          1.5         0.2 setosa 
#>  5          1.4         0.2 setosa 
#>  6          1.7         0.4 setosa 
#>  7          1.4         0.3 setosa 
#>  8          1.5         0.2 setosa 
#>  9          1.4         0.2 setosa 
#> 10          1.5         0.1 setosa 
#> 11          1.5         0.2 setosa 
#> 12          1.6         0.2 setosa 
#> # ℹ 138 more rows
```
…
# `select()` pick or remove columns by name
  
`select()` is often used to pick required columns from larger datasets, or rearrange
columns in a data.frame.

Select **all columns between** Sepal.Length and Petal.Width (inclusive):

``` r
# Sepal.Length, Sepal.Width, Petal.Length, Petal.Width
iris |> 
  select(Sepal.Length:Petal.Width)
```

```
#> # A tibble: 150 × 4
#>    Sepal.Length Sepal.Width Petal.Length Petal.Width
#>           <dbl>       <dbl>        <dbl>       <dbl>
#>  1          5.1         3.5          1.4         0.2
#>  2          4.9         3            1.4         0.2
#>  3          4.7         3.2          1.3         0.2
#>  4          4.6         3.1          1.5         0.2
#>  5          5           3.6          1.4         0.2
#>  6          5.4         3.9          1.7         0.4
#>  7          4.6         3.4          1.4         0.3
#>  8          5           3.4          1.5         0.2
#>  9          4.4         2.9          1.4         0.2
#> 10          4.9         3.1          1.5         0.1
#> 11          5.4         3.7          1.5         0.2
#> 12          4.8         3.4          1.6         0.2
#> # ℹ 138 more rows
```
…
``` r
penguins |> 
  filter(species == "Chinstrap")
```

--

```
#> # A tibble: 68 × 8
#>    species   island bill_len bill_dep flipper_len body_mass sex     year
#>    <fct>     <fct>     <dbl>    <dbl>       <int>     <int> <fct>  <int>
#>  1 Chinstrap Dream      46.5     17.9         192      3500 female  2007
#>  2 Chinstrap Dream      50       19.5         196      3900 male    2007
#>  3 Chinstrap Dream      51.3     19.2         193      3650 male    2007
#>  4 Chinstrap Dream      45.4     18.7         188      3525 female  2007
#>  5 Chinstrap Dream      52.7     19.8         197      3725 male    2007
#>  6 Chinstrap Dream      45.2     17.8         198      3950 female  2007
#>  7 Chinstrap Dream      46.1     18.2         178      3250 female  2007
#>  8 Chinstrap Dream      51.3     18.2         197      3750 male    2007
#>  9 Chinstrap Dream      46       18.9         195      4150 female  2007
#> 10 Chinstrap Dream      51.3     19.9         198      3700 male    2007
#> 11 Chinstrap Dream      46.6     17.8         193      3800 female  2007
#> 12 Chinstrap Dream      51.7     20.3         194      3775 male    2007
#> 13 Chinstrap Dream      47       17.3         185      3700 female  2007
#> 14 Chinstrap Dream      52       18.1         201      4050 male    2007
#> 15 Chinstrap Dream      45.9     17.1         190      3575 female  2007
#> # ℹ 53 more rows
```
…
--

`arrange()` works on one, or multiple, columns in the input data.frame .. selected without quotes

``` r
iris |>  
  arrange(Sepal.Length, Sepal.Width)
```

--

```
#> # A tibble: 150 × 5
#>    Sepal.Length Sepal.Width Petal.Length Petal.Width Species
#>           <dbl>       <dbl>        <dbl>       <dbl> <fct>  
#>  1          4.3         3            1.1         0.1 setosa 
#>  2          4.4         2.9          1.4         0.2 setosa 
#>  3          4.4         3            1.3         0.2 setosa 
#>  4          4.4         3.2          1.3         0.2 setosa 
#>  5          4.5         2.3          1.3         0.3 setosa 
#>  6          4.6         3.1          1.5         0.2 setosa 
#>  7          4.6         3.2          1.4         0.2 setosa 
#>  8          4.6         3.4          1.4         0.3 setosa 
#>  9          4.6         3.6          1           0.2 setosa 
#> 10          4.7         3.2          1.3         0.2 setosa 
#> 11          4.7         3.2          1.6         0.2 setosa 
#> 12          4.8         3            1.4         0.1 setosa 
#> # ℹ 138 more rows
```
---

# `arrange()` arrange and sort rows

Default is in ascending order, use `desc()` on the column for descending

``` r
iris |>  
  arrange(desc(Sepal.Length), Sepal.Width)
```

--

```
#> # A tibble: 150 × 5
#>    Sepal.Length Sepal.Width Petal.Length Petal.Width Species  
#>           <dbl>       <dbl>        <dbl>       <dbl> <fct>    
#>  1          7.9         3.8          6.4         2   virginica
#>  2          7.7         2.6          6.9         2.3 virginica
#>  3          7.7         2.8          6.7         2   virginica
#>  4          7.7         3            6.1         2.3 virginica
#>  5          7.7         3.8          6.7         2.2 virginica
#>  6          7.6         3            6.6         2.1 virginica
#>  7          7.4         2.8          6.1         1.9 virginica
#>  8          7.3         2.9          6.3         1.8 virginica
#>  9          7.2         3            5.8         1.6 virginica
#> 10          7.2         3.2          6           1.8 virginica
#> 11          7.2         3.6          6.1         2.5 virginica
#> 12          7.1         3            5.9         2.1 virginica
#> # ℹ 138 more rows
```
…
]

--

.pull-right[

``` r
environmental_data
```

```
#> # A tibble: 94 × 4
#>    site_id date       temp_c rain_mm
#>    <chr>   <date>      <dbl>   <dbl>
#>  1 SiteA   2024-01-01   -1.6     7.2
#>  2 SiteA   2024-01-02    7.7     0.5
#>  3 SiteA   2024-01-03   -1.7    17  
#>  4 SiteA   2024-01-04    1.3    14.3
#>  5 SiteA   2024-01-05    5.7     2.6
#>  6 SiteA   2024-01-06    3       6.6
#>  7 SiteA   2024-01-07   10.3     3.1
#>  8 SiteA   2024-01-08    7       4.4
#>  9 SiteA   2024-01-09   -1.7     9.1
#> 10 SiteA   2024-01-10    2.7    10  
#> # ℹ 84 more rows
```
…
--

.pull-left[

- Do values uniquely identify an observation? 

``` r
# sort = TRUE, sort result by decending n
environmental_data %>% 
  count(site_id, date, sort = TRUE)
```

```
#> # A tibble: 93 × 3
#>   site_id date           n
#>   <chr>   <date>     <int>
*#> 1 SiteC   2024-01-31     2
#> 2 SiteA   2024-01-01     1
#> 3 SiteA   2024-01-02     1
#> 4 SiteA   2024-01-03     1
#> 5 SiteA   2024-01-04     1
#> 6 SiteA   2024-01-05     1
#> 7 SiteA   2024-01-06     1
#> # ℹ 86 more rows
```
…
]

--

.pull-right[

.large[Long]

``` r
gene_data_long
```

```
#> # A tibble: 30 × 4
#>    Trt     Rep Gene  Count
#>    <chr> <int> <chr> <int>
#>  1 A         1 Gene1     9
#>  2 A         1 Gene2    12
#>  3 A         1 Gene3     4
#>  4 A         1 Gene4    11
#>  5 A         1 Gene5    12
#>  6 A         2 Gene1     8
#>  7 A         2 Gene2    15
#>  8 A         2 Gene3     4
#>  9 A         2 Gene4     9
#> 10 A         2 Gene5    14
#> 11 A         3 Gene1     4
#> 12 A         3 Gene2     6
#> 13 A         3 Gene3     6
#> 14 A         3 Gene4    11
#> 15 A         3 Gene5    10
#> # ℹ 15 more rows
```
…
]

.pull-right[

``` r
gene_data |>
  pivot_longer(cols = starts_with('Gene'), 
               names_to = 'Gene', 
               values_to = 'Count')
```

```
#> # A tibble: 30 × 4
#>   Trt     Rep Gene  Count
#>   <chr> <int> <chr> <int>
#> 1 A         1 Gene1     9
#> 2 A         1 Gene2    12
#> 3 A         1 Gene3     4
#> 4 A         1 Gene4    11
#> 5 A         1 Gene5    12
#> 6 A         2 Gene1     8
#> 7 A         2 Gene2    15
#> 8 A         2 Gene3     4
#> # ℹ 22 more rows
```
…
---

# `pivot_wider()` reshape long to wide

 - `names_from =` the column(s) with values that become the new column names, and 
 - `values_to =` the column with values that populate the new columns

.pull-left[

``` r
gene_data_long
```

```
#> # A tibble: 30 × 4
#>    Trt     Rep Gene  Count
#>    <chr> <int> <chr> <int>
#>  1 A         1 Gene1     9
#>  2 A         1 Gene2    12
#>  3 A         1 Gene3     4
#>  4 A         1 Gene4    11
#>  5 A         1 Gene5    12
#>  6 A         2 Gene1     8
#>  7 A         2 Gene2    15
#>  8 A         2 Gene3     4
#>  9 A         2 Gene4     9
#> 10 A         2 Gene5    14
#> 11 A         3 Gene1     4
#> 12 A         3 Gene2     6
#> # ℹ 18 more rows
```
…
# Pivoting with missing combinations

Produce `NA` by default

.pull-left[

Here, A_1_Gene1, A_2_Gene3 have no rows

``` r
gene_data_long
```

```
#> # A tibble: 28 × 4
#>    Trt     Rep Gene  Count
#>    <chr> <int> <chr> <int>
*#>  1 A         1 Gene2    12
#>  2 A         1 Gene3     4
#>  3 A         1 Gene4    11
#>  4 A         1 Gene5    12
#>  5 A         2 Gene1     8
#>  6 A         2 Gene2    15
*#>  7 A         2 Gene4     9
#>  8 A         2 Gene5    14
#>  9 A         3 Gene1     4
#> 10 A         3 Gene2     6
#> 11 A         3 Gene3     6
#> 12 A         3 Gene4    11
#> # ℹ 16 more rows
```
…
