Module 3 - Data visualisation with ggplot2
…
---

# The data for the following example

We will use different columns of the `penguins` data in our following example

```
#> # A tibble: 344 × 8
#>    species island    bill_len bill_dep flipper_len body_mass sex     year
#>    <fct>   <fct>        <dbl>    <dbl>       <int>     <int> <fct>  <int>
#>  1 Adelie  Torgersen     39.1     18.7         181      3750 male    2007
#>  2 Adelie  Torgersen     39.5     17.4         186      3800 female  2007
#>  3 Adelie  Torgersen     40.3     18           195      3250 female  2007
#>  4 Adelie  Torgersen     NA       NA            NA        NA <NA>    2007
#>  5 Adelie  Torgersen     36.7     19.3         193      3450 female  2007
#>  6 Adelie  Torgersen     39.3     20.6         190      3650 male    2007
#>  7 Adelie  Torgersen     38.9     17.8         181      3625 female  2007
#>  8 Adelie  Torgersen     39.2     19.6         195      4675 male    2007
#>  9 Adelie  Torgersen     34.1     18.1         193      3475 <NA>    2007
#> 10 Adelie  Torgersen     42       20.2         190      4250 <NA>    2007
#> 11 Adelie  Torgersen     37.8     17.1         186      3300 <NA>    2007
#> 12 Adelie  Torgersen     37.8     17.3         180      3700 <NA>    2007
#> 13 Adelie  Torgersen     41.1     17.6         182      3200 female  2007
#> 14 Adelie  Torgersen     38.6     21.2         191      3800 male    2007
#> 15 Adelie  Torgersen     34.6     21.1         198      4400 male    2007
#> # ℹ 329 more rows
```
…
# Line plots

---

# Data for this exercise

Plant growth heights over time between genotypes .. note **long data**

``` r
plant_heights
```

```
#> # A tibble: 140 × 4
#>    genotype replicate  time height_cm
#>    <fct>    <fct>     <dbl>     <dbl>
#>  1 A        1             2     0.243
#>  2 A        2             2     0.220
#>  3 A        3             2     0.534
#>  4 A        4             2     0.402
#>  5 A        5             2     0.225
#>  6 A        1             4     0.480
#>  7 A        2             4     0.635
#>  8 A        3             4     0.966
#>  9 A        4             4     0.534
#> 10 A        5             4     0.439
#> 11 A        1             6     0.689
#> 12 A        2             6     1.08 
#> 13 A        3             6     1.23 
#> 14 A        4             6     0.648
#> 15 A        5             6     0.505
#> # ℹ 125 more rows
```
…
]

---

# Stacking useful for compositional data

`USPersonalExpenditure2` has expenditure values across categories over years

.pull-left[

```
#> # A tibble: 25 × 3
#>    Category            Year  Expenditure_pct
#>    <chr>               <chr>           <dbl>
#>  1 Food and Tobacco    1940           59.0  
#>  2 Household Operation 1940           27.9  
#>  3 Medical and Health  1940            9.39 
#>  4 Personal Care       1940            2.77 
#>  5 Private Education   1940            0.907
#>  6 Food and Tobacco    1945           64.8  
#>  7 Household Operation 1945           22.6  
#>  8 Medical and Health  1945            8.38 
#>  9 Personal Care       1945            2.88 
#> 10 Private Education   1945            1.42 
#> 11 Food and Tobacco    1950           58.1  
#> 12 Household Operation 1950           28.3  
#> 13 Medical and Health  1950            9.47 
#> 14 Personal Care       1950            2.39 
#> 15 Private Education   1950            1.76 
#> 16 Food and Tobacco    1955           56.4  
#> 17 Household Operation 1955           28.1  
#> 18 Medical and Health  1955           10.8  
#> # ℹ 7 more rows
```
…
